
<svg xmlns="http://www.w3.org/2000/svg" width="42.545" height="21.839" viewBox="0 0 42.545 21.839" stroke="#172664" fill="#172664">
  












<g id="Group_107" data-name="Group 107" transform="translate(-39.623 -108.451)" stroke="#172664" fill="#172664">
    












<g id="Group_12" data-name="Group 12" transform="translate(40.622 109.451)" stroke="#172664" fill="#172664">
      












<line id="Line_4" data-name="Line 4" x2="25.874" transform="translate(0)" fill="none" stroke="#C43C00" stroke-linecap="round" stroke-miterlimit="10" stroke-width="2"></line>
      












<path id="Path_52" data-name="Path 52" d="M0,0H25.874" transform="translate(0 9.919)" fill="none" stroke="#C43C00" stroke-linecap="round" stroke-width="2"></path>
      












<line id="Line_6" data-name="Line 6" x2="25.874" transform="translate(0 19.839)" fill="none" stroke="#C43C00" stroke-linecap="round" stroke-miterlimit="10" stroke-width="2"></line>
    </g>
    












<path id="Path_182" data-name="Path 182" d="M8495.574-2435.387l7.485,7.485-3.376,3.377-4.109,4.109Z" transform="translate(8577.242 -2308.097) rotate(180)" fill="#C43C00" stroke="#C43C00" stroke-linecap="round" stroke-linejoin="round" stroke-width="1"></path>
  </g>
</svg>