
<svg id="Layer_1" data-name="Layer 1" xmlns="http://www.w3.org/2000/svg" viewBox="0 0 55.9 40" stroke="#172664" fill="#172664">












<defs stroke="#172664" fill="#172664">












<style stroke="#172664" fill="#172664">.cls-1{fill:none;stroke-miterlimit:10;}.cls-1,.cls-2,.cls-3{stroke:#C43C00;stroke-linecap:round;}.cls-1,.cls-2{stroke-width:2px;}.cls-2,.cls-3{fill:#C43C00;}.cls-3{stroke-linejoin:round;}</style></defs>












<title stroke="#172664" fill="#172664">all_icons</title>












<g id="Group_107" data-name="Group 107" stroke="#172664" fill="#172664">












<g id="Group_12" data-name="Group 12" stroke="#172664" fill="#172664">












<line id="Line_4" data-name="Line 4" class="cls-1" x1="7.43" y1="10.08" x2="33.3" y2="10.08" stroke="#172664" fill="#172664"></line>












<path id="Path_52" data-name="Path 52" class="cls-2" d="M7.43,20H33.3" stroke="#172664" fill="#172664"></path>












<line id="Line_6" data-name="Line 6" class="cls-1" x1="7.43" y1="29.92" x2="33.3" y2="29.92" stroke="#172664" fill="#172664"></line></g>












<path id="Path_182" data-name="Path 182" class="cls-3" d="M41,13l7.48,7.48L45.1,23.81,41,27.92Z" stroke="#172664" fill="#172664"></path></g></svg>