
<svg xmlns="http://www.w3.org/2000/svg" viewBox="0 0 16 16" width="16" height="16" stroke="#172664" fill="#172664">












<title stroke="#172664" fill="#172664">c delete</title>












<g class="nc-icon-wrapper" fill="#0c96c4" stroke="#172664">












<path fill="#0c96c4" d="M8,0C3.6,0,0,3.6,0,8s3.6,8,8,8s8-3.6,8-8S12.4,0,8,0z M12,9H4V7h8V9z" stroke="#172664"></path></g></svg>