<?xml version="1.0" encoding="utf-8"?>
<!-- Generator: Adobe Illustrator 24.1.2, SVG Export Plug-In . SVG Version: 6.00 Build 0)  -->
<svg version="1.1" id="Layer_1" xmlns="http://www.w3.org/2000/svg" xmlns:xlink="http://www.w3.org/1999/xlink" x="0px" y="0px"
	 width="32px" height="32px" viewBox="0 0 32 32" style="enable-background:new 0 0 32 32;" xml:space="preserve">
<style type="text/css">
	.st0{fill:#AFCB20;}
</style>
<g>
	<path class="st0" d="M29,0H3C2.4,0,2,0.4,2,1v30c0,0.6,0.4,1,1,1h26c0.6,0,1-0.4,1-1V1C30,0.4,29.6,0,29,0z M16.7,23.7
		C16.5,23.9,16.3,24,16,24s-0.5-0.1-0.7-0.3L9.6,18l1.4-1.4l4,4V9h2v11.6l4-4l1.4,1.4L16.7,23.7z"/>
</g>
</svg>
